\relax 
\select@language{english}
\@writefile{toc}{\select@language{english}}
\@writefile{lof}{\select@language{english}}
\@writefile{lot}{\select@language{english}}
\@writefile{toc}{\contentsline {section}{\numberline {1}Introduction}{1}}
\@writefile{toc}{\contentsline {section}{\numberline {2}Merge Sort}{1}}
\@writefile{toc}{\contentsline {subsection}{\numberline {2.1}Iterative Algorithm}{1}}
\@writefile{toc}{\contentsline {subsection}{\numberline {2.2}Recursive Algorithm}{2}}
\@writefile{toc}{\contentsline {subsection}{\numberline {2.3}Divide and Conquer Algorithm}{2}}
\@writefile{toc}{\contentsline {subsection}{\numberline {2.4}Energy Analysis}{3}}
\@writefile{toc}{\contentsline {section}{\numberline {3}Floyd Warshall}{3}}
\@writefile{toc}{\contentsline {subsection}{\numberline {3.1}Iterative Algorithm}{3}}
\@writefile{toc}{\contentsline {subsubsection}{\numberline {3.1.1}Energy Analysis}{4}}
\@writefile{toc}{\contentsline {subsection}{\numberline {3.2}Divide and Conquer Algorithm 1}{4}}
\@writefile{toc}{\contentsline {subsection}{\numberline {3.3}Divide and Conquer Algorithm 2}{4}}
\@writefile{lof}{\contentsline {figure}{\numberline {3.1}{\ignorespaces Approach 1 - Floyd Warshall}}{5}}
\@writefile{lof}{\contentsline {figure}{\numberline {3.2}{\ignorespaces Approach 2 - Floyd Warshall}}{5}}
